#Command:  
C:\USERS\ABUGK\APPDATA\LOCAL\MICROSOFT\VSAPPLICATIONINSIGHTS\VSTELAIF-312CBD79-9DBB-4C48-A7DA-3CC2A931CB70\20191227134207_6233C113FAE14B36B4307E335AE76489.TRN
C:\USERS\ABUGK\APPDATA\LOCAL\MICROSOFT\VSAPPLICATIONINSIGHTS\VSTELAIF-312CBD79-9DBB-4C48-A7DA-3CC2A931CB70\20191227135637_FE48BB0EE0364E579E64D343A6225288.TRN
