#Command:  
C:\WINDOWS\MICROSOFT.NET\FRAMEWORK\V2.0.50727\MSCORWKS.DLL
C:\WINDOWS\MICROSOFT.NET\FRAMEWORK\V4.0.30319\CLR.DLL
C:\PROGRAM FILES (X86)\MICROSOFT VISUAL STUDIO\2017\COMMUNITY\VC\TOOLS\MSVC\14.12.25827\BIN\HOSTX86\X86\VCTIP.EXE
C:\WINDOWS\MICROSOFT.NET\FRAMEWORK\V4.0.30319\CLR.DLL
C:\WINDOWS\MICROSOFT.NET\FRAMEWORK\V4.0.30319\CONFIG\MACHINE.CONFIG
C:\USERS\ABUGK\APPDATA\LOCAL\MICROSOFT\CLR_V4.0_32\USAGELOGS\VCTIP.EXE.LOG
C:\WINDOWS\GLOBALIZATION\SORTING\SORTDEFAULT.NLS
C:\WINDOWS\MICROSOFT.NET\ASSEMBLY\GAC_32\MSCORLIB\V4.0_4.0.0.0__B77A5C561934E089\MSCORLIB.DLL
C:\WINDOWS\ASSEMBLY\NATIVEIMAGES_V4.0.30319_32\MSCORLIB\48544608EE1424C9C713D99C7A353349\MSCORLIB.NI.DLL
C:\WINDOWS\ASSEMBLY\NATIVEIMAGES_V4.0.30319_32\MSCORLIB\48544608EE1424C9C713D99C7A353349\MSCORLIB.NI.DLL.AUX
C:\WINDOWS\MICROSOFT.NET\ASSEMBLY\GAC_32\MSCORLIB\V4.0_4.0.0.0__B77A5C561934E089\MSCORLIB.DLL
C:\PROGRAM FILES (X86)\MICROSOFT VISUAL STUDIO\2017\COMMUNITY\VC\TOOLS\MSVC\14.12.25827\BIN\HOSTX86\X86\VCTIP.EXE
C:\WINDOWS\SYSTEM32\TZRES.DLL
C:\USERS\ABUGK\APPDATA\LOCAL\MICROSOFT\VSCOMMON\15.0\SQM\VCTOOLSTELEMETRY.DAT.TMP
C:\WINDOWS\ASSEMBLY\PUBPOL1119.DAT
C:\WINDOWS\MICROSOFT.NET\FRAMEWORK\V4.0.30319\CONFIG\MACHINE.CONFIG
C:\PROGRAM FILES (X86)\MICROSOFT VISUAL STUDIO\2017\COMMUNITY\VC\TOOLS\MSVC\14.12.25827\BIN\HOSTX86\X86\MICROSOFT.VISUALSTUDIO.TELEMETRY.DLL
C:\WINDOWS\ASSEMBLY\NATIVEIMAGES_V4.0.30319_32\MICROSOFT.VF87AED9A#\3B4AEDE277985CB615D6422ED7086D1E\MICROSOFT.VISUALSTUDIO.TELEMETRY.NI.DLL
C:\WINDOWS\ASSEMBLY\NATIVEIMAGES_V4.0.30319_32\MICROSOFT.VF87AED9A#\3B4AEDE277985CB615D6422ED7086D1E\MICROSOFT.VISUALSTUDIO.TELEMETRY.NI.DLL.AUX
C:\PROGRAM FILES (X86)\MICROSOFT VISUAL STUDIO\2017\COMMUNITY\VC\TOOLS\MSVC\14.12.25827\BIN\HOSTX86\X86\MICROSOFT.VISUALSTUDIO.TELEMETRY.DLL
C:\WINDOWS\ASSEMBLY\NATIVEIMAGES_V4.0.30319_32\MICROSOFT.VF87AED9A#\4E024C1A73BF38E1497D35AD74F6A0BE\MICROSOFT.VISUALSTUDIO.TELEMETRY.NI.DLL
C:\WINDOWS\ASSEMBLY\NATIVEIMAGES_V4.0.30319_32\MICROSOFT.VF87AED9A#\4E024C1A73BF38E1497D35AD74F6A0BE\MICROSOFT.VISUALSTUDIO.TELEMETRY.NI.DLL.AUX
C:\WINDOWS\ASSEMBLY\NATIVEIMAGES_V4.0.30319_32\MICROSOFT.VF87AED9A#\73FDE2CC8CE322C6AD29A91A38FC2040\MICROSOFT.VISUALSTUDIO.TELEMETRY.NI.DLL
C:\WINDOWS\ASSEMBLY\NATIVEIMAGES_V4.0.30319_32\MICROSOFT.VF87AED9A#\73FDE2CC8CE322C6AD29A91A38FC2040\MICROSOFT.VISUALSTUDIO.TELEMETRY.NI.DLL.AUX
C:\WINDOWS\ASSEMBLY\NATIVEIMAGES_V4.0.30319_32\MICROSOFT.VF87AED9A#\3B4AEDE277985CB615D6422ED7086D1E\MICROSOFT.VISUALSTUDIO.TELEMETRY.NI.DLL
C:\WINDOWS\ASSEMBLY\NATIVEIMAGES_V4.0.30319_32\MICROSOFT.VF87AED9A#\3B4AEDE277985CB615D6422ED7086D1E\MICROSOFT.VISUALSTUDIO.TELEMETRY.NI.DLL.AUX
C:\PROGRAM FILES (X86)\MICROSOFT VISUAL STUDIO\2017\COMMUNITY\VC\TOOLS\MSVC\14.12.25827\BIN\HOSTX86\X86\MICROSOFT.VISUALSTUDIO.TELEMETRY.DLL
C:\WINDOWS\ASSEMBLY\NATIVEIMAGES_V4.0.30319_32\MICROSOFT.VF87AED9A#\4E024C1A73BF38E1497D35AD74F6A0BE\MICROSOFT.VISUALSTUDIO.TELEMETRY.NI.DLL
C:\WINDOWS\ASSEMBLY\NATIVEIMAGES_V4.0.30319_32\MICROSOFT.VF87AED9A#\4E024C1A73BF38E1497D35AD74F6A0BE\MICROSOFT.VISUALSTUDIO.TELEMETRY.NI.DLL.AUX
C:\WINDOWS\ASSEMBLY\NATIVEIMAGES_V4.0.30319_32\MICROSOFT.VF87AED9A#\73FDE2CC8CE322C6AD29A91A38FC2040\MICROSOFT.VISUALSTUDIO.TELEMETRY.NI.DLL
C:\WINDOWS\ASSEMBLY\NATIVEIMAGES_V4.0.30319_32\MICROSOFT.VF87AED9A#\73FDE2CC8CE322C6AD29A91A38FC2040\MICROSOFT.VISUALSTUDIO.TELEMETRY.NI.DLL.AUX
C:\PROGRAM FILES (X86)\MICROSOFT VISUAL STUDIO\2017\COMMUNITY\VC\TOOLS\MSVC\14.12.25827\BIN\HOSTX86\X86\MICROSOFT.VISUALSTUDIO.UTILITIES.INTERNAL.DLL
C:\WINDOWS\ASSEMBLY\NATIVEIMAGES_V4.0.30319_32\MICROSOFT.VDE5ED89A#\425D4CE13D4E77D6E7679378599C112F\MICROSOFT.VISUALSTUDIO.UTILITIES.INTERNAL.NI.DLL
C:\WINDOWS\ASSEMBLY\NATIVEIMAGES_V4.0.30319_32\MICROSOFT.VDE5ED89A#\425D4CE13D4E77D6E7679378599C112F\MICROSOFT.VISUALSTUDIO.UTILITIES.INTERNAL.NI.DLL.AUX
C:\PROGRAM FILES (X86)\MICROSOFT VISUAL STUDIO\2017\COMMUNITY\VC\TOOLS\MSVC\14.12.25827\BIN\HOSTX86\X86\MICROSOFT.VISUALSTUDIO.UTILITIES.INTERNAL.DLL
C:\WINDOWS\MICROSOFT.NET\ASSEMBLY\GAC_MSIL\SYSTEM\V4.0_4.0.0.0__B77A5C561934E089\SYSTEM.DLL
C:\WINDOWS\ASSEMBLY\NATIVEIMAGES_V4.0.30319_32\SYSTEM\47D8098623206EB9197E176CF4D0DCA1\SYSTEM.NI.DLL
C:\WINDOWS\ASSEMBLY\NATIVEIMAGES_V4.0.30319_32\SYSTEM\47D8098623206EB9197E176CF4D0DCA1\SYSTEM.NI.DLL.AUX
C:\WINDOWS\MICROSOFT.NET\ASSEMBLY\GAC_MSIL\SYSTEM\V4.0_4.0.0.0__B77A5C561934E089\SYSTEM.DLL
C:\WINDOWS\MICROSOFT.NET\ASSEMBLY\GAC_MSIL\SYSTEM.CONFIGURATION\V4.0_4.0.0.0__B03F5F7F11D50A3A\SYSTEM.CONFIGURATION.DLL
C:\WINDOWS\MICROSOFT.NET\ASSEMBLY\GAC_MSIL\SYSTEM.XML\V4.0_4.0.0.0__B77A5C561934E089\SYSTEM.XML.DLL
C:\WINDOWS\MICROSOFT.NET\ASSEMBLY\GAC_MSIL\SYSTEM.CORE\V4.0_4.0.0.0__B77A5C561934E089\SYSTEM.CORE.DLL
C:\WINDOWS\ASSEMBLY\NATIVEIMAGES_V4.0.30319_32\SYSTEM.CORE\13AB18466BDB14F8E70D667DBADA3CBA\SYSTEM.CORE.NI.DLL
C:\WINDOWS\ASSEMBLY\NATIVEIMAGES_V4.0.30319_32\SYSTEM.CORE\13AB18466BDB14F8E70D667DBADA3CBA\SYSTEM.CORE.NI.DLL.AUX
C:\WINDOWS\MICROSOFT.NET\ASSEMBLY\GAC_MSIL\SYSTEM.CORE\V4.0_4.0.0.0__B77A5C561934E089\SYSTEM.CORE.DLL
C:\WINDOWS\MICROSOFT.NET\ASSEMBLY\GAC_MSIL\SYSTEM.NUMERICS\V4.0_4.0.0.0__B77A5C561934E089\SYSTEM.NUMERICS.DLL
C:\WINDOWS\MICROSOFT.NET\ASSEMBLY\GAC_MSIL\SYSTEM.SECURITY\V4.0_4.0.0.0__B03F5F7F11D50A3A\SYSTEM.SECURITY.DLL
C:\PROGRAM FILES (X86)\MICROSOFT VISUAL STUDIO\2017\COMMUNITY\VC\TOOLS\MSVC\14.12.25827\BIN\HOSTX86\X86\VCTIP.EXE
C:\WINDOWS\SYSTEM32\WINNLSRES.DLL
C:\PROGRAM FILES (X86)\MICROSOFT VISUAL STUDIO\2017\COMMUNITY\VC\TOOLS\MSVC\14.12.25827\BIN\HOSTX86\X86\MICROSOFT.VISUALSTUDIO.TELEMETRY.DLL
C:\PROGRAM FILES (X86)\MICROSOFT VISUAL STUDIO\2017\COMMUNITY\VC\TOOLS\MSVC\14.12.25827\BIN\HOSTX86\X86\MICROSOFT.VISUALSTUDIO.REMOTECONTROL.DLL
C:\WINDOWS\ASSEMBLY\NATIVEIMAGES_V4.0.30319_32\MICROSOFT.V8F370856#\34ACE714DBF1B9826E74D299865FE039\MICROSOFT.VISUALSTUDIO.REMOTECONTROL.NI.DLL
C:\WINDOWS\ASSEMBLY\NATIVEIMAGES_V4.0.30319_32\MICROSOFT.V8F370856#\34ACE714DBF1B9826E74D299865FE039\MICROSOFT.VISUALSTUDIO.REMOTECONTROL.NI.DLL.AUX
C:\PROGRAM FILES (X86)\MICROSOFT VISUAL STUDIO\2017\COMMUNITY\VC\TOOLS\MSVC\14.12.25827\BIN\HOSTX86\X86\MICROSOFT.VISUALSTUDIO.REMOTECONTROL.DLL
C:\USERS\ABUGK\APPDATA\LOCAL\MICROSOFT\VSCOMMON\15.0\SQM\VCTOOLSTELEMETRY.DAT.TMP
